Apr    	20.459459459459463
Aug    	19.632432432432434
Dec    	23.470270270270277
Feb    	24.98378378378379
Jan    	24.14594594594595
Jul    	15.316279069767445
Jun    	19.066666666666674
Mar    	22.929729729729736
May    	19.335135135135136
Nov    	23.17297297297298
Oct    	22.821621621621627
Sep    	20.740540540540547
